<?xml version="1.0" encoding="UTF-8" standalone="no"?>
<svg
   xmlns:dc="http://purl.org/dc/elements/1.1/"
   xmlns:cc="http://creativecommons.org/ns#"
   xmlns:rdf="http://www.w3.org/1999/02/22-rdf-syntax-ns#"
   xmlns:svg="http://www.w3.org/2000/svg"
   xmlns="http://www.w3.org/2000/svg"
   xmlns:sodipodi="http://sodipodi.sourceforge.net/DTD/sodipodi-0.dtd"
   xmlns:inkscape="http://www.inkscape.org/namespaces/inkscape"
   sodipodi:docname="shapes-f14.svg"
   inkscape:version="1.0beta1 (a4ee55bc41, 2019-11-15)"
   sodipodi:version="0.32"
   id="svg5645"
   viewBox="0 0 300 150"
   height="150"
   width="300"
   version="1.1">
  <defs
     id="defs3" />
  <sodipodi:namedview
     inkscape:window-maximized="0"
     inkscape:window-y="27"
     inkscape:window-x="54"
     inkscape:window-height="1053"
     inkscape:window-width="1866"
     inkscape:guide-bbox="true"
     showguides="true"
     units="px"
     showgrid="false"
     inkscape:document-rotation="0"
     inkscape:current-layer="layer1"
     inkscape:document-units="px"
     inkscape:cy="-2.7978518"
     inkscape:cx="324.77314"
     inkscape:zoom="1.4"
     inkscape:pageshadow="2"
     inkscape:pageopacity="0.0"
     borderopacity="1.0"
     bordercolor="#666666"
     pagecolor="#ffffff"
     id="base"
     inkscape:lockguides="true" />
  <metadata
     id="metadata4">
    <rdf:RDF>
      <cc:Work
         rdf:about="">
        <dc:format>image/svg+xml</dc:format>
        <dc:type
           rdf:resource="http://purl.org/dc/dcmitype/StillImage" />
      </cc:Work>
    </rdf:RDF>
  </metadata>
  <g
     id="layer1"
     inkscape:groupmode="layer"
     inkscape:label="Layer 1">
    <path
       d="m 199.02224,68.977301 -39.1093,-8.864362 36.18276,13.030142 -37.61769,-13.893315 34.17243,17.641465 -35.48242,-18.68455 31.57741,21.950938 -32.74004,-23.156086 28.44209,25.884823 -29.43747,-27.231415 24.82011,29.375812 -25.63121,-30.840807 20.77346,32.364173 -21.3864,-33.922504 16.37137,34.798773 -16.77566,-36.423778 11.68916,36.637958 -11.87789,-38.301831 6.80694,37.850256 -6.77688,-39.524529 1.80826,38.414927 -1.55991,-40.070952 -3.22137,38.322307 3.68374,-39.931749 -8.19587,37.573982 8.86436,-39.109303 -13.03014,36.182755 13.89331,-37.617686 -17.64146,34.172432 18.68455,-35.48242 -21.95094,31.577409 23.15609,-32.74004 -25.88483,28.442088 27.23142,-29.437469 -29.37581,24.820114 30.8408,-25.631214 -32.36417,20.773462 33.9225,-21.386402 -34.79877,16.371369 36.42378,-16.775663 -36.63796,11.689159 38.30183,-11.877888 -37.85025,6.806943 39.52453,-6.776879 -38.41493,1.808259 40.07095,-1.559915 -38.32231,-3.221365 39.93175,3.683739 -37.57398,-8.195871 39.1093,8.864363 -36.18275,-13.030143 37.61768,13.893316 -34.17243,-17.641465 35.48242,18.684549 -31.57741,-21.950937 32.74004,23.156085 -28.44208,-25.884823 29.43746,27.231415 -24.82011,-29.375812 25.63121,30.840807 -20.77346,-32.364173 21.3864,33.922505 -16.37136,-34.798774 16.77566,36.423778 -11.68916,-36.6379576 11.87789,38.3018316 -6.80695,-37.850257 6.77688,39.524529 -1.80826,-38.414926 1.55992,40.070951 3.22136,-38.322306 -3.68373,39.931748 8.19587,-37.573981 -8.86437,39.109303 13.03015,-36.182756 -13.89332,37.617686 17.64147,-34.172432 -18.68455,35.48242 21.95093,-31.577409 -23.15608,32.74004 25.88482,-28.442087 -27.23141,29.437468 29.37581,-24.820114 -30.84081,25.631214 32.36417,-20.773462 -33.9225,21.386403 34.79877,-16.37137 -36.42377,16.775663 36.63795,-11.689158 -38.30183,11.877888 37.85026,-6.806944 -39.52453,6.776879 38.41493,-1.808259 -40.07096,1.559916 38.32231,3.221365 -39.93175,-3.683739 z"
       inkscape:randomized="0"
       inkscape:rounded="0"
       inkscape:flatsided="false"
       sodipodi:arg2="2.0469"
       sodipodi:arg1="0.54696605"
       sodipodi:r2="12.801702"
       sodipodi:r1="38.920246"
       sodipodi:cy="48.734947"
       sodipodi:cx="165.78021"
       sodipodi:sides="48"
       id="path2725"
       style="color:#000000;fill:none;fill-opacity:0.75;fill-rule:evenodd;stroke:#000000;stroke-width:0.0375;stroke-linecap:butt;stroke-linejoin:miter;stroke-miterlimit:4;stroke-dashoffset:0;stroke-opacity:1;marker:none;marker-start:none;marker-mid:none;marker-end:none"
       sodipodi:type="star" />
    <path
       transform="matrix(0.996295,-0.08599074,0.08599074,0.996295,-267.6345,-4191.319)"
       d="m 45.956989,4353.4876 -10.301968,-42.6707 -18.837221,45.1762 37.398788,-22.9838 -48.7861435,-3.955 33.4156895,28.466 -11.314274,-47.6206 -16.746756,40.5767 41.793537,-25.4761 -43.7657529,-3.3882 z"
       inkscape:randomized="0"
       inkscape:rounded="0"
       inkscape:flatsided="false"
       sodipodi:arg2="-1.3248582"
       sodipodi:arg1="0.85670563"
       sodipodi:r2="24.610689"
       sodipodi:r1="24.878733"
       sodipodi:cy="4334.687"
       sodipodi:cx="29.663147"
       sodipodi:sides="5"
       id="path2918"
       style="color:#000000;fill:#520100;fill-opacity:1;fill-rule:evenodd;stroke:none;stroke-width:0.685401pt;stroke-linecap:butt;stroke-linejoin:miter;stroke-miterlimit:4;stroke-dashoffset:0;stroke-opacity:0.236923;marker:none;marker-start:none;marker-mid:none;marker-end:none"
       sodipodi:type="star" />
    <polygon
       d="m 32.276994,2897.7581 10.554351,-46.7068 -55.19591,16.1426 35.172154,32.4938 13.61801,-55.8724 -45.7265057,14.2131 z"
       inkscape:randomized="0"
       inkscape:rounded="0"
       inkscape:flatsided="false"
       transform="matrix(0.08282123,0.375917,-0.375917,0.08282123,1315.3144,-115.99)"
       points="32.277,2897.76 42.8313,2851.05 -12.3646,2867.19 22.8076,2899.69 36.4256,2843.82 -9.30091,2858.03 32.277,2897.76 "
       sodipodi:arg2="-0.65664333"
       sodipodi:arg1="1.1239539"
       sodipodi:r2="30.366934"
       sodipodi:r1="31.235876"
       sodipodi:cy="2869.5891"
       sodipodi:cx="18.779343"
       sodipodi:sides="3"
       id="polygon1259"
       style="color:#000000;font-size:12px;fill:none;fill-opacity:0.75;fill-rule:evenodd;stroke:#000000;stroke-width:0.474654;stroke-linecap:butt;stroke-linejoin:miter;stroke-miterlimit:4;stroke-dashoffset:0;stroke-opacity:1;marker:none;marker-start:none;marker-mid:none;marker-end:none"
       sodipodi:type="star" />
    <polygon
       d="m 171.3615,2897.7582 16.619,-37.8334 -31.49253,12.5304 41.11724,4.1144 -21.64883,-26.079 8.79284,40.3762 18.11282,-28.6481 -35.68296,20.8394 32.84317,8.3736 -30.84613,-27.4968 z"
       inkscape:randomized="0"
       inkscape:rounded="0"
       inkscape:flatsided="false"
       transform="matrix(0.968463,-0.249152,0.249152,0.968463,-703.3292,-2621.787)"
       points="171.362,2897.76 187.981,2859.92 156.488,2872.46 197.605,2876.57 175.956,2850.49 184.749,2890.87 202.862,2862.22 167.179,2883.06 200.022,2891.43 169.176,2863.93 171.362,2897.76 "
       sodipodi:arg2="-1.152584"
       sodipodi:arg1="1.9818609"
       sodipodi:r2="16.355642"
       sodipodi:r1="24.967192"
       sodipodi:cy="2874.8708"
       sodipodi:cx="181.33803"
       sodipodi:sides="5"
       id="polygon1263"
       style="font-size:12px;fill:none;fill-opacity:0.75;fill-rule:evenodd;stroke:#000000;stroke-width:0.25;stroke-opacity:1"
       sodipodi:type="star" />
    <path
       d="M 37.278178,42.450152 13.502395,12.724785 34.741303,44.532112 17.221496,10.739484 31.847003,46.079148 21.256449,9.5178905 28.706504,47.031807 25.452192,9.1069501 25.440495,47.353481 29.647486,9.5224548 22.174485,47.031807 33.681108,10.748437 19.033986,46.079148 37.398047,12.737783 16.139686,44.532112 40.655464,15.414042 13.602811,42.450152 43.328179,18.674369 11.520851,39.913277 45.31348,22.393471 9.9738157,37.018977 46.535073,26.428423 9.0211558,33.878478 46.946013,30.624167 8.699482,30.612469 46.530508,34.81946 9.0211558,27.346459 45.304526,38.853082 9.9738156,24.205961 43.315181,42.570021 11.520851,21.311661 40.638921,45.827438 13.602811,18.774785 37.378594,48.500153 16.139686,16.692826 33.659493,50.485454 19.033986,15.14579 29.62454,51.707047 22.174485,14.19313 25.428797,52.117987 25.440494,13.871456 21.233503,51.702483 28.706504,14.19313 17.199881,50.476501 31.847003,15.14579 13.482942,48.487155 34.741303,16.692825 10.225525,45.810895 37.278178,18.774785 7.5528103,42.550568 39.360138,21.31166 5.5675095,38.831467 40.907173,24.205961 4.3459163,34.796514 41.859833,27.346459 3.9349759,30.600771 42.181507,30.612469 4.3504806,26.405477 41.859833,33.878478 5.5764627,22.371856 40.907173,37.018977 7.5658083,18.654916 39.360138,39.913277 10.242068,15.397499 Z"
       inkscape:randomized="0"
       inkscape:rounded="0"
       inkscape:flatsided="false"
       sodipodi:arg2="-2.159301"
       sodipodi:arg1="0.78539816"
       sodipodi:r2="21.505522"
       sodipodi:r1="16.741013"
       sodipodi:cy="30.612469"
       sodipodi:cx="25.440495"
       sodipodi:sides="32"
       id="path3540"
       style="color:#000000;fill:#520100;fill-opacity:1;fill-rule:evenodd;stroke:none;stroke-width:0.882735pt;stroke-linecap:butt;stroke-linejoin:miter;stroke-miterlimit:4;stroke-dashoffset:0;stroke-opacity:0.236923;marker:none;marker-start:none;marker-mid:none;marker-end:none"
       sodipodi:type="star" />
    <path
       d="m 260.40791,49.119122 -35.66333,13.070438 23.4106,-9.40483 -34.45997,-15.975588 23.20401,9.903579 -13.07044,-35.66333 9.40484,23.410606 L 249.2092,1.8390025e-5 239.30562,23.204036 l 35.66333,-13.070438 -23.4106,9.404831 34.45998,15.975587 -23.20402,-9.903579 13.07044,35.663331 -9.40483,-23.410606 -15.97559,34.459978 z"
       inkscape:randomized="0"
       inkscape:rounded="0"
       inkscape:flatsided="false"
       sodipodi:arg2="2.3382889"
       sodipodi:arg1="0.88740509"
       sodipodi:r2="36.167358"
       sodipodi:r1="16.710012"
       sodipodi:cy="36.161578"
       sodipodi:cx="249.85676"
       sodipodi:sides="8"
       id="path2723"
       style="color:#000000;fill:#520100;fill-opacity:1;fill-rule:evenodd;stroke:none;stroke-width:0.685401pt;stroke-linecap:butt;stroke-linejoin:miter;stroke-miterlimit:4;stroke-dashoffset:0;stroke-opacity:0.236923;marker:none;marker-start:none;marker-mid:none;marker-end:none"
       sodipodi:type="star" />
    <path
       transform="rotate(0.00191844,124891540,0)"
       d="m 307.9506,4272.0326 -41.28003,0.6425 33.55556,17.4164 -29.64373,-28.735 11.41211,36.0426 -0.64253,-41.28 -17.4164,33.5555 28.73505,-29.6437 -36.04261,11.4121 41.28002,-0.6425 -33.55556,-17.4164 29.64373,28.735 -11.41211,-36.0426 0.64253,41.28 17.4164,-33.5555 -28.73505,29.6437 z"
       inkscape:randomized="0"
       inkscape:rounded="0"
       inkscape:flatsided="false"
       sodipodi:arg2="3.0816518"
       sodipodi:arg1="0.011487387"
       sodipodi:r2="15.646836"
       sodipodi:r1="25.662985"
       sodipodi:cy="4271.7378"
       sodipodi:cx="282.28931"
       sodipodi:sides="8"
       id="path2724"
       style="color:#000000;fill:#520100;fill-opacity:1;fill-rule:evenodd;stroke:none;stroke-width:0.685401pt;stroke-linecap:butt;stroke-linejoin:miter;stroke-miterlimit:4;stroke-dashoffset:0;stroke-opacity:0.236923;marker:none;marker-start:none;marker-mid:none;marker-end:none"
       sodipodi:type="star" />
    <path
       d="M 92.43113,52.263618 78.397499,18.535635 78.468158,46.479967 92.394168,12.707405 72.684505,32.516995 106.41249,18.483364 78.468157,18.554023 112.24072,32.480034 92.431129,12.77037 106.46476,46.498354 106.3941,18.554022 92.46809,52.326584 112.17775,32.516994 78.44977,46.550625 106.3941,46.479966 72.62154,32.553955 Z"
       inkscape:randomized="0"
       inkscape:rounded="0"
       inkscape:flatsided="false"
       sodipodi:arg2="-2.3580603"
       sodipodi:arg1="1.5707963"
       sodipodi:r2="19.809624"
       sodipodi:r1="19.746624"
       sodipodi:cy="32.516994"
       sodipodi:cx="92.431129"
       sodipodi:sides="8"
       id="path3347"
       style="color:#000000;fill:none;fill-opacity:0.75;fill-rule:evenodd;stroke:#000000;stroke-width:0.25;stroke-linecap:butt;stroke-linejoin:miter;stroke-miterlimit:4;stroke-dashoffset:0;stroke-opacity:1;marker:none;marker-start:none;marker-mid:none;marker-end:none"
       sodipodi:type="star" />
    <path
       d="M 102.42723,123.67673 47.447762,85.242092 89.694106,138.35282 52.311473,82.652714 72.519207,147.43813 57.782139,81.995166 53.222097,149.70565 63.120917,83.358254 34.408958,144.84912 67.606776,86.557884 18.620609,133.52445 70.633874,91.161929 7.9893525,117.26111 71.793387,96.548588 3.951,98.255533 70.928714,101.99036 7.0509529,79.074544 68.156636,106.75231 16.870546,62.308636 63.851536,110.1913 32.083587,50.222139 58.594842,111.84289 50.635473,44.4474 53.0965,111.48401 70.020667,45.764331 48.099092,109.16313 87.621092,53.995072 44.277544,105.1937 101.05971,68.028016 42.147979,100.11182 108.52157,85.967937 41.998005,94.603824 108.9989,105.39195 43.847878,89.41359 Z"
       inkscape:randomized="0"
       inkscape:rounded="0"
       inkscape:flatsided="false"
       sodipodi:arg2="-2.2448164"
       sodipodi:arg1="0.52982957"
       sodipodi:r2="14.99335"
       sodipodi:r1="52.870548"
       sodipodi:cy="96.95668"
       sodipodi:cx="56.805591"
       sodipodi:sides="17"
       id="path5832"
       style="color:#000000;fill:#520100;fill-opacity:1;fill-rule:evenodd;stroke:none;stroke-width:1.01847pt;stroke-linecap:butt;stroke-linejoin:miter;stroke-miterlimit:4;stroke-dashoffset:0;stroke-opacity:0.236923;marker:none;marker-start:none;marker-mid:none;marker-end:none"
       sodipodi:type="star" />
  </g>
</svg>
