<?xml version="1.0" encoding="UTF-8" standalone="no"?>
<svg
   xmlns:dc="http://purl.org/dc/elements/1.1/"
   xmlns:cc="http://creativecommons.org/ns#"
   xmlns:rdf="http://www.w3.org/1999/02/22-rdf-syntax-ns#"
   xmlns:svg="http://www.w3.org/2000/svg"
   xmlns="http://www.w3.org/2000/svg"
   xmlns:sodipodi="http://sodipodi.sourceforge.net/DTD/sodipodi-0.dtd"
   xmlns:inkscape="http://www.inkscape.org/namespaces/inkscape"
   sodipodi:docname="shapes-f18.svg"
   inkscape:version="1.0beta1 (a4ee55bc41, 2019-11-15)"
   sodipodi:version="0.32"
   id="svg2767"
   viewBox="0 0 300 56"
   height="56"
   width="300"
   version="1.1">
  <defs
     id="defs3" />
  <sodipodi:namedview
     inkscape:window-maximized="1"
     inkscape:window-y="27"
     inkscape:window-x="54"
     inkscape:window-height="1016"
     inkscape:window-width="1866"
     inkscape:guide-bbox="true"
     showguides="true"
     units="px"
     showgrid="false"
     inkscape:document-rotation="0"
     inkscape:current-layer="layer1"
     inkscape:document-units="px"
     inkscape:cy="7.4106635"
     inkscape:cx="238.27254"
     inkscape:zoom="1.979899"
     inkscape:pageshadow="2"
     inkscape:pageopacity="0.0"
     borderopacity="1.0"
     bordercolor="#666666"
     pagecolor="#ffffff"
     id="base"
     inkscape:lockguides="true" />
  <metadata
     id="metadata4">
    <rdf:RDF>
      <cc:Work
         rdf:about="">
        <dc:format>image/svg+xml</dc:format>
        <dc:type
           rdf:resource="http://purl.org/dc/dcmitype/StillImage" />
        <dc:title />
      </cc:Work>
    </rdf:RDF>
  </metadata>
  <g
     id="layer1"
     inkscape:groupmode="layer"
     inkscape:label="Layer 1">
    <path
       transform="translate(0.74677748,-4695.737)"
       d="m 50.827696,4734.3915 c -1.69512,2.9695 -10.765641,-0.6976 -13.203714,1.4944 -2.351382,2.1141 1.245306,11.8745 -2.178402,12.514 -3.549935,0.663 -7.797385,-13.2023 -11.063518,-13.7767 -3.149997,-0.5539 -12.864701,11.5185 -15.0074453,8.9875 -2.2217442,-2.6243 11.2051093,-13.4622 9.5674993,-16.6138 -1.57938,-3.0395 -16.8006836,-3.6503 -16.6764507,-7.0358 0.1288133,-3.5103 12.2876697,1.884 13.9425727,-1.295 1.596059,-3.0659 -5.690428,-16.6787 -2.996317,-18.8654 2.793439,-2.2674 12.72174,8.1772 16.159935,8.1151 3.315941,-0.06 2.676149,-10.0598 5.704602,-8.993 3.140108,1.1062 -1.98633,12.3037 0.670329,14.4145 2.562194,2.0357 13.343461,-3.344 14.970921,-0.3974 1.687462,3.0553 -9.948992,9.0801 -10.347674,12.4512 -0.384505,3.2512 12.092506,6.1365 10.457662,9.0004 z"
       inkscape:randomized="0.1"
       inkscape:rounded="0.22"
       inkscape:flatsided="false"
       sodipodi:arg2="0.98389742"
       sodipodi:arg1="0.5059504"
       sodipodi:r2="13.016966"
       sodipodi:r1="26.033934"
       sodipodi:cy="4723.0049"
       sodipodi:cx="28.926914"
       sodipodi:sides="7"
       id="path2788"
       style="color:#000000;fill:#ff6c2e;fill-opacity:1;fill-rule:evenodd;stroke:none;stroke-width:0.862877pt;stroke-linecap:butt;stroke-linejoin:miter;stroke-miterlimit:4;stroke-dashoffset:0;stroke-opacity:0.236923;marker:none;marker-start:none;marker-mid:none;marker-end:none"
       sodipodi:type="star" />
    <path
       transform="translate(60.786752,-4695.737)"
       d="m 54.981283,4728.3665 c -0.981063,3.217 -14.810261,-0.063 -16.810506,2.5797 -1.924446,2.5424 4.703718,10.9471 2.079693,12.5185 -2.727378,1.6332 -6.355893,-5.9668 -9.700778,-5.7371 -3.218133,0.221 -10.322211,7.7667 -13.284447,6.9199 -3.07891,-0.88 4.733617,-9.3235 2.869301,-12.0922 -1.793668,-2.6638 -13.2861476,-0.012 -14.2731103,-2.973 -1.0258362,-3.0776 8.7752233,-6.0303 9.5188373,-9.3353 0.715435,-3.1798 -8.3228335,-9.8768 -6.3087449,-12.3022 2.0934179,-2.5208 10.4730649,4.3437 13.3147429,2.5955 2.733995,-1.682 3.70618,-14.8136 6.870033,-14.8033 3.288469,0.011 0.549143,17.1899 3.725137,17.9707 3.055642,0.7513 14.156533,-11.0014 15.923981,-8.445 1.837064,2.6571 -9.245122,13.4656 -8.34679,16.7603 0.864291,3.1699 15.366537,3.2485 14.422651,6.3435 z"
       inkscape:randomized="0.1"
       inkscape:rounded="0.22"
       inkscape:flatsided="false"
       sodipodi:arg2="0.64669515"
       sodipodi:arg1="0.16874813"
       sodipodi:r2="12.867882"
       sodipodi:r1="24.975779"
       sodipodi:cy="4723.0049"
       sodipodi:cx="28.926914"
       sodipodi:sides="7"
       id="path2789"
       style="color:#000000;fill:#ff6c2e;fill-opacity:1;fill-rule:evenodd;stroke:none;stroke-width:0.862877pt;stroke-linecap:butt;stroke-linejoin:miter;stroke-miterlimit:4;stroke-dashoffset:0;stroke-opacity:0.236923;marker:none;marker-start:none;marker-mid:none;marker-end:none"
       sodipodi:type="star" />
    <path
       transform="translate(120.82764,-4695.737)"
       d="m 52.391049,4738.4497 c -1.669768,3.0151 -13.281564,-7.4782 -16.028238,-5.6143 -2.649008,1.7976 -0.863606,17.7432 -4.003109,17.8875 -3.255252,0.1497 -2.57491,-12.0134 -5.955929,-13.1902 -3.260798,-1.1351 -14.776544,6.4465 -17.2954633,4.5531 -2.6117882,-1.9632 7.9554273,-13.1335 6.4100203,-16.1278 -1.490457,-2.8879 -14.53872787,-2.1979 -14.6341034,-5.489 -0.0988919,-3.4124 15.2382444,0.055 17.4429054,-2.6425 2.126269,-2.6011 -5.476561,-14.4273 -2.51997,-15.7015 3.065597,-1.3213 6.260186,6.2503 9.496664,6.0002 3.121398,-0.2412 6.222156,-12.3591 9.377819,-11.5526 3.272008,0.8362 2.028146,16.2475 4.617864,18.556 2.497633,2.2264 14.237069,-5.2851 15.745809,-2.3349 1.564364,3.0591 -13.437966,10.222 -13.574448,13.7604 -0.131629,3.4125 12.530575,8.9876 10.920179,11.8956 z"
       inkscape:randomized="0.1"
       inkscape:rounded="0.22"
       inkscape:flatsided="false"
       sodipodi:arg2="1.0163215"
       sodipodi:arg1="0.53837452"
       sodipodi:r2="12.903711"
       sodipodi:r1="25.807421"
       sodipodi:cy="4723.0049"
       sodipodi:cx="28.926914"
       sodipodi:sides="7"
       id="path2790"
       style="color:#000000;fill:#ff6c2e;fill-opacity:1;fill-rule:evenodd;stroke:none;stroke-width:0.862877pt;stroke-linecap:butt;stroke-linejoin:miter;stroke-miterlimit:4;stroke-dashoffset:0;stroke-opacity:0.236923;marker:none;marker-start:none;marker-mid:none;marker-end:none"
       sodipodi:type="star" />
    <path
       transform="translate(180.86624,-4695.737)"
       d="m 49.555272,4735.1143 c -1.76928,2.9355 -9.576907,-0.1479 -12.319957,1.5699 -2.645513,1.6568 -2.101917,14.1896 -5.310547,14.1837 -3.326927,-0.01 -6.733056,-17.083 -9.799637,-18.561 -2.957541,-1.4254 -7.948287,11.2231 -9.797494,8.6727 -1.917385,-2.6444 5.580369,-12.623 4.405533,-15.8019 -1.133063,-3.0658 -14.8525038,-5.2513 -14.3515949,-8.3855 0.5193766,-3.2498 12.3779939,3.2171 14.0541139,0.1922 1.61652,-2.9173 -2.173651,-14.5536 0.736101,-15.8651 3.01703,-1.3598 9.272752,11.052 12.6097,10.8023 3.218295,-0.2408 6.233974,-11.8187 9.283463,-10.3447 3.161918,1.5284 -4.18621,10.4928 -1.929625,13.0716 2.176347,2.4871 17.753136,-1.491 18.267395,1.5856 0.533218,3.19 -13.84957,5.5554 -14.748691,8.7186 -0.867149,3.0509 10.607608,7.3306 8.90124,10.1616 z"
       inkscape:randomized="0.1"
       inkscape:rounded="0.22"
       inkscape:flatsided="false"
       sodipodi:arg2="1.075916"
       sodipodi:arg1="0.59796906"
       sodipodi:r2="12.845784"
       sodipodi:r1="25.69157"
       sodipodi:cy="4723.0049"
       sodipodi:cx="28.926914"
       sodipodi:sides="7"
       id="path2791"
       style="color:#000000;fill:#ff6c2e;fill-opacity:1;fill-rule:evenodd;stroke:none;stroke-width:0.862877pt;stroke-linecap:butt;stroke-linejoin:miter;stroke-miterlimit:4;stroke-dashoffset:0;stroke-opacity:0.236923;marker:none;marker-start:none;marker-mid:none;marker-end:none"
       sodipodi:type="star" />
    <path
       transform="translate(240.90694,-4695.737)"
       d="m 47.131009,4741.2662 c -2.428899,2.4346 -10.695458,-6.456 -13.82633,-4.8668 -3.019546,1.5327 -2.6557,11.3208 -5.869325,11.5511 -3.332107,0.2388 -1.988177,-10.8684 -5.288974,-12.154 -3.183428,-1.2399 -13.9142503,3.1779 -15.4156959,0.459 -1.5568018,-2.819 12.6113479,-10.3215 12.0953509,-13.8127 -0.49765,-3.367 -17.4598762,-5.6256 -16.310853,-8.8056 1.191386,-3.2972 13.369053,4.8152 15.687458,2.2743 2.235969,-2.4506 -1.380919,-12.6549 1.403029,-14.2045 2.886587,-1.6067 7.943435,7.2122 11.439819,6.8838 3.372061,-0.3167 8.709574,-9.1965 11.588988,-7.9401 2.985574,1.3027 -4.498897,11.5617 -2.939379,14.4449 1.504066,2.7807 16.415907,2.8228 16.386236,6.061 -0.03077,3.3577 -12.902025,4.7491 -14.093435,8.084 -1.149046,3.2164 7.485645,9.6776 5.143111,12.0256 z"
       inkscape:randomized="0.1"
       inkscape:rounded="0.22"
       inkscape:flatsided="false"
       sodipodi:arg2="1.2035873"
       sodipodi:arg1="0.72564034"
       sodipodi:r2="12.752373"
       sodipodi:r1="25.504747"
       sodipodi:cy="4723.0049"
       sodipodi:cx="28.926914"
       sodipodi:sides="7"
       id="path2792"
       style="color:#000000;fill:#ff6c2e;fill-opacity:1;fill-rule:evenodd;stroke:none;stroke-width:0.862877pt;stroke-linecap:butt;stroke-linejoin:miter;stroke-miterlimit:4;stroke-dashoffset:0;stroke-opacity:0.236923;marker:none;marker-start:none;marker-mid:none;marker-end:none"
       sodipodi:type="star" />
  </g>
</svg>
