<?xml version="1.0" encoding="UTF-8" standalone="no"?>
<svg
   xmlns:dc="http://purl.org/dc/elements/1.1/"
   xmlns:cc="http://creativecommons.org/ns#"
   xmlns:rdf="http://www.w3.org/1999/02/22-rdf-syntax-ns#"
   xmlns:svg="http://www.w3.org/2000/svg"
   xmlns="http://www.w3.org/2000/svg"
   xmlns:sodipodi="http://sodipodi.sourceforge.net/DTD/sodipodi-0.dtd"
   xmlns:inkscape="http://www.inkscape.org/namespaces/inkscape"
   version="1.1"
   inkscape:output_extension="org.inkscape.output.svg.inkscape"
   sodipodi:docname="interpolate-f17.svg"
   inkscape:version="1.0beta1 (08a003b, 2019-11-10)"
   sodipodi:version="0.32"
   viewBox="0 0 300 39"
   id="svg15699"
   height="39"
   width="300">
  <defs
     id="defs15701" />
  <sodipodi:namedview
     inkscape:lockguides="true"
     id="base"
     pagecolor="#ffffff"
     bordercolor="#666666"
     borderopacity="1.0"
     inkscape:pageopacity="0.0"
     inkscape:pageshadow="2"
     inkscape:zoom="1.4"
     inkscape:cx="160"
     inkscape:cy="19.5"
     inkscape:document-units="px"
     inkscape:current-layer="layer1"
     inkscape:document-rotation="0"
     showgrid="false"
     units="px"
     showguides="true"
     inkscape:guide-bbox="true"
     inkscape:window-width="1866"
     inkscape:window-height="1016"
     inkscape:window-x="54"
     inkscape:window-y="27"
     inkscape:window-maximized="1" />
  <metadata
     id="metadata15704">
    <rdf:RDF>
      <cc:Work
         rdf:about="">
        <dc:format>image/svg+xml</dc:format>
        <dc:type
           rdf:resource="http://purl.org/dc/dcmitype/StillImage" />
        <dc:title></dc:title>
      </cc:Work>
    </rdf:RDF>
  </metadata>
  <g
     id="layer1"
     inkscape:groupmode="layer"
     inkscape:label="Layer 1">
    <g
       transform="translate(-10.688993,-14.423056)"
       id="g2850">
      <path
         inkscape:connector-curvature="0"
         style="fill:#ffcc00;fill-opacity:1;stroke:#000000;stroke-width:1.50038;stroke-linejoin:round;stroke-miterlimit:4;stroke-dasharray:none;stroke-opacity:1"
         d="m 52.29046,44.870068 c -2.997633,2.9047 -3.507079,-5.4269 -7.120665,-3.1924 -3.684923,2.2786 1.132576,7.9413 -3.227658,8.4695 -4.275827,0.518 1.544089,-6.96 -2.677711,-7.5297 -4.305143,-0.5809 -3.831019,7.2721 -7.907862,5.6902 -3.99792,-1.5512 4.538079,-5.7159 1.629621,-8.871 -2.965875,-3.2174 -6.213294,5.7225 -8.462887,1.9618 -2.206044,-3.6879 5.568058,-2.5543 4.95876,-6.6857 -0.621326,-4.2129 -8.402865,-0.2039 -8.030318,-4.4441 0.365336,-4.158 8.015332,2.7474 9.900609,-1.0624 1.922494,-3.885 -6.953244,-4.6724 -4.276714,-7.8974 2.624715,-3.1626 4.670778,4.5784 8.370782,2.3643 3.773046,-2.2578 -2.706716,-7.438 1.458203,-8.4264 4.084291,-0.9693 0.183675,7.8023 4.350054,8.2857 4.248626,0.4928 2.824686,-8.4766 6.659534,-6.6728 3.760611,1.7689 -3.613079,6.4804 -0.833854,9.6299 2.834091,3.2117 5.587332,-5.8282 7.762386,-2.1005 2.132947,3.6556 -5.515222,3.2348 -4.863467,7.5016 0.664621,4.3509 8.878341,0.2243 8.028527,4.487 -0.833362,4.1803 -8.372195,-3.756 -9.994112,0.2036 -1.653934,4.0378 7.33358,5.3268 4.276772,8.2888 z"
         id="path14293" />
      <path
         inkscape:connector-curvature="0"
         style="fill:#d40000;fill-opacity:1;stroke:#ededed;stroke-width:1.50038;stroke-linejoin:round;stroke-miterlimit:4;stroke-dasharray:none;stroke-opacity:1"
         d="m 277.068,47.106668 c -2.99763,2.9047 -3.50708,-5.4269 -7.12067,-3.1924 -3.68492,2.2786 1.13258,7.9413 -3.22765,8.4695 -4.27583,0.518 1.54409,-6.96 -2.67771,-7.5297 -4.30515,-0.581 -3.83102,7.2721 -7.90787,5.6902 -3.99792,-1.5512 4.53808,-5.7159 1.62963,-8.871 -2.96588,-3.2175 -6.2133,5.7225 -8.46289,1.9618 -2.20605,-3.6879 5.56805,-2.5543 4.95876,-6.6857 -0.62133,-4.2129 -8.40287,-0.2039 -8.03032,-4.4441 0.36534,-4.1581 8.01533,2.7473 9.90061,-1.0624 1.92249,-3.885 -6.95325,-4.6724 -4.27671,-7.8974 2.62471,-3.1626 4.67077,4.5784 8.37078,2.3643 3.77304,-2.2578 -2.70672,-7.438 1.4582,-8.4265 4.08429,-0.9692 0.18367,7.8024 4.35005,8.2857 4.24863,0.4929 2.82469,-8.4766 6.65954,-6.6727 3.76061,1.7689 -3.61308,6.4804 -0.83385,9.6299 2.83409,3.2117 5.58732,-5.8282 7.76238,-2.1005 2.13295,3.6555 -5.51522,3.2348 -4.86347,7.5016 0.66463,4.3509 8.87834,0.2243 8.02853,4.487 -0.83336,4.1803 -8.37219,-3.756 -9.99411,0.2036 -1.65393,4.0378 7.33358,5.3268 4.27677,8.2888 z"
         id="path14295" />
      <g
         id="g14449"
         transform="matrix(0.5218716,0,0,0.5218716,16.367493,-843.97546)">
        <path
           inkscape:connector-curvature="0"
           id="path14451"
           d="m 130.3655,1703.8005 c -5.74401,5.566 -6.7202,-10.399 -13.64448,-6.1173 -1.9e-4,2e-4 -3.7e-4,3e-4 -5.6e-4,4e-4 -7.05994,4.3665 2.17056,15.2167 -6.18422,16.2287 -3e-5,0 -7e-5,10e-5 -1.1e-4,10e-5 -8.19305,0.9924 2.95883,-13.3366 -5.13087,-14.4283 -3e-5,0 -7e-5,0 -1e-4,0 -8.249317,-1.113 -7.340851,13.9347 -15.152784,10.9035 -3.3e-5,0 -6.7e-5,0 -1e-4,0 -7.660495,-2.9725 8.695853,-10.9527 3.122747,-16.9985 -1.49e-4,-1e-4 -2.97e-4,-3e-4 -4.46e-4,-4e-4 -5.683031,-6.1639 -11.905458,10.9657 -16.215972,3.7596 -1.1e-4,-10e-5 -2.21e-4,-3e-4 -3.31e-4,-5e-4 -4.226068,-7.066 10.669703,-4.8943 9.502211,-12.8105 -3.2e-5,-2e-4 -6.3e-5,-4e-4 -9.4e-5,-6e-4 -1.191259,-8.0717 -16.101293,-0.3904 -15.387444,-8.5151 1.8e-5,-2e-4 3.7e-5,-4e-4 5.5e-5,-6e-4 0.70076,-7.9663 15.35886,5.2649 18.971296,-2.0352 9.6e-5,-2e-4 1.93e-4,-3e-4 2.89e-4,-5e-4 3.682668,-7.4438 -13.323824,-8.9527 -8.195243,-15.1323 1.31e-4,-10e-5 2.63e-4,-3e-4 3.94e-4,-4e-4 5.029238,-6.0589 8.949845,8.7734 16.039534,4.5308 1.89e-4,-10e-5 3.78e-4,-2e-4 5.67e-4,-3e-4 7.228621,-4.3266 -5.186915,-14.2523 2.793611,-16.1463 2.1e-4,0 4.1e-4,-10e-5 6.2e-4,-10e-5 7.82523,-1.8563 0.35154,14.951 8.33487,15.877 2.1e-4,10e-5 4.2e-4,10e-5 6.4e-4,10e-5 8.14035,0.9434 5.41216,-16.2427 12.76023,-12.7863 1.9e-4,10e-5 3.8e-4,2e-4 5.6e-4,3e-4 7.20471,3.3898 -6.92373,12.4176 -1.59838,18.4524 1.5e-4,2e-4 2.9e-4,4e-4 4.3e-4,5e-4 5.43048,6.1527 10.70602,-11.1683 14.87371,-4.0255 10e-5,2e-4 2.1e-4,4e-4 3.2e-4,6e-4 4.08602,7.0041 -10.56845,6.1982 -9.3196,14.3738 0,10e-5 10e-6,10e-5 10e-6,2e-4 1.27366,8.337 17.01248,0.4298 15.38409,8.5978 -4e-5,3e-4 -8e-5,5e-4 -1.2e-4,7e-4 -1.59751,8.0086 -16.0426,-7.1978 -19.1504,0.3893 -8e-5,2e-4 -1.6e-4,4e-4 -2.5e-4,7e-4 -3.16808,7.7367 14.05256,10.2066 8.19532,15.8822 0,0 0,0 0,0"
           style="opacity:1;fill:#f8ae00;fill-opacity:1;stroke:#212121;stroke-width:2.875;stroke-linejoin:round;stroke-miterlimit:4;stroke-dasharray:none;stroke-opacity:1" />
        <path
           inkscape:connector-curvature="0"
           id="path14453"
           d="m 191.89611,1704.4128 c -5.744,5.566 -6.72019,-10.399 -13.64448,-6.1173 -1.6e-4,10e-5 -3.1e-4,2e-4 -4.6e-4,3e-4 -7.06011,4.3665 2.1705,15.2167 -6.18431,16.2288 -8e-5,0 -1.5e-4,0 -2.2e-4,0 -8.19285,0.9923 2.9589,-13.3365 -5.13076,-14.4282 -7e-5,0 -1.5e-4,0 -2.2e-4,0 -8.2492,-1.113 -7.34077,13.9347 -15.15267,10.9035 -7e-5,0 -1.4e-4,-10e-5 -2e-4,-10e-5 -7.66025,-2.9726 8.69593,-10.9527 3.12285,-16.9984 -1.3e-4,-1e-4 -2.5e-4,-3e-4 -3.8e-4,-4e-4 -5.68305,-6.1641 -11.90551,10.9656 -16.21604,3.7596 -9e-5,-2e-4 -1.9e-4,-3e-4 -2.8e-4,-5e-4 -4.22625,-7.0661 10.66965,-4.8943 9.50216,-12.8105 -3e-5,-2e-4 -5e-5,-4e-4 -8e-5,-5e-4 -1.19115,-8.0719 -16.10131,-0.3905 -15.38746,-8.5152 1e-5,-2e-4 3e-5,-4e-4 4e-5,-5e-4 0.70065,-7.9665 15.35886,5.2647 18.97131,-2.0353 8e-5,-2e-4 1.6e-4,-3e-4 2.4e-4,-5e-4 3.68287,-7.4439 -13.3238,-8.9527 -8.19519,-15.1323 1.1e-4,-10e-5 2.2e-4,-3e-4 3.3e-4,-4e-4 5.02927,-6.0591 8.94987,8.7734 16.0396,4.5308 1.5e-4,-10e-5 3.1e-4,-2e-4 4.7e-4,-3e-4 7.22882,-4.3265 -5.18686,-14.2524 2.7937,-16.1463 1.7e-4,-1e-4 3.5e-4,-1e-4 5.2e-4,-1e-4 7.82539,-1.8565 0.35161,14.9509 8.33497,15.877 1.8e-4,0 3.5e-4,0 5.3e-4,0 8.14049,0.9436 5.41224,-16.2426 12.76034,-12.7862 1.6e-4,10e-5 3.1e-4,10e-5 4.7e-4,2e-4 7.20492,3.3898 -6.92367,12.4176 -1.59828,18.4525 1.2e-4,10e-5 2.3e-4,3e-4 3.5e-4,4e-4 5.43051,6.1529 10.70607,-11.1683 14.87378,-4.0254 9e-5,10e-5 1.8e-4,3e-4 2.7e-4,4e-4 4.0862,7.0043 -10.5684,6.1983 -9.31955,14.374 1e-5,10e-5 2e-5,10e-5 3e-5,2e-4 1.27378,8.3368 17.01246,0.4298 15.38407,8.5978 -3e-5,2e-4 -6e-5,3e-4 -1e-4,5e-4 -1.5974,8.0089 -16.0426,-7.1976 -19.15042,0.3895 -6e-5,2e-4 -1.3e-4,3e-4 -2e-4,5e-4 -3.16828,7.7368 14.05254,10.2067 8.19527,15.8824 0,0 0,0 0,0"
           style="opacity:1;fill:#f29100;fill-opacity:1;stroke:#434343;stroke-width:2.875;stroke-linejoin:round;stroke-miterlimit:4;stroke-dasharray:none;stroke-opacity:1" />
        <path
           inkscape:connector-curvature="0"
           id="path14455"
           d="m 253.42672,1705.025 c -5.744,5.566 -6.72019,-10.399 -13.64448,-6.1173 -1.2e-4,10e-5 -2.5e-4,2e-4 -3.7e-4,3e-4 -7.06028,4.3664 2.17045,15.2167 -6.1844,16.2288 -1.1e-4,0 -2.2e-4,10e-5 -3.2e-4,10e-5 -8.19265,0.9922 2.95896,-13.3366 -5.13066,-14.4283 -1.1e-4,0 -2.2e-4,0 -3.2e-4,0 -8.24909,-1.1128 -7.3407,13.9347 -15.15257,10.9035 -1e-4,0 -2e-4,0 -3e-4,-10e-5 -7.66001,-2.9726 8.69601,-10.9527 3.12295,-16.9984 -1e-4,-10e-5 -2e-4,-2e-4 -3e-4,-3e-4 -5.68307,-6.1643 -11.90557,10.9656 -16.21612,3.7595 -7e-5,-1e-4 -1.5e-4,-2e-4 -2.2e-4,-3e-4 -4.22644,-7.0663 10.6696,-4.8944 9.5021,-12.8107 -2e-5,-10e-5 -4e-5,-3e-4 -6e-5,-4e-4 -1.19103,-8.072 -16.10133,-0.3905 -15.38748,-8.5153 1e-5,-10e-5 3e-5,-2e-4 4e-5,-4e-4 0.70052,-7.9667 15.35884,5.2647 18.97131,-2.0354 7e-5,-10e-5 1.3e-4,-2e-4 1.9e-4,-4e-4 3.68307,-7.4439 -13.32377,-8.9528 -8.19514,-15.1324 9e-5,-10e-5 1.7e-4,-2e-4 2.6e-4,-3e-4 5.0293,-6.0593 8.94992,8.7734 16.03967,4.5307 1.2e-4,0 2.5e-4,-10e-5 3.8e-4,-2e-4 7.22902,-4.3265 -5.1868,-14.2524 2.7938,-16.1464 1.3e-4,0 2.7e-4,0 4.1e-4,-10e-5 7.82556,-1.8566 0.35168,14.9509 8.33507,15.877 1.4e-4,0 2.9e-4,10e-5 4.3e-4,10e-5 8.14061,0.9437 5.41231,-16.2427 12.76044,-12.7863 1.3e-4,10e-5 2.5e-4,10e-5 3.8e-4,2e-4 7.20514,3.3897 -6.9236,12.4176 -1.59819,18.4525 9e-5,10e-5 1.9e-4,2e-4 2.8e-4,4e-4 5.43053,6.1531 10.70613,-11.1682 14.87385,-4.0254 7e-5,2e-4 1.4e-4,3e-4 2.1e-4,4e-4 4.08639,7.0043 -10.56835,6.1983 -9.31949,14.374 2e-5,10e-5 3e-5,2e-4 5e-5,4e-4 1.2739,8.3366 17.01243,0.4296 15.38406,8.5976 -3e-5,2e-4 -6e-5,3e-4 -9e-5,4e-4 -1.59729,8.0092 -16.0426,-7.1975 -19.15043,0.3896 -6e-5,2e-4 -1.1e-4,3e-4 -1.7e-4,4e-4 -3.16847,7.7369 14.05253,10.2068 8.19523,15.8825 0,0 0,0 0,0"
           style="opacity:1;fill:#ec7400;fill-opacity:1;stroke:#656565;stroke-width:2.875;stroke-linejoin:round;stroke-miterlimit:4;stroke-dasharray:none;stroke-opacity:1" />
        <path
           inkscape:connector-curvature="0"
           id="path14457"
           d="m 314.95733,1705.6373 c -5.744,5.566 -6.72019,-10.399 -13.64448,-6.1173 -9e-5,0 -1.8e-4,10e-5 -2.7e-4,10e-5 -7.06046,4.3665 2.17038,15.2169 -6.1845,16.229 -1.4e-4,0 -2.8e-4,0 -4.3e-4,0 -8.19244,0.9921 2.95904,-13.3365 -5.13055,-14.4282 -1.4e-4,0 -2.9e-4,-10e-5 -4.3e-4,-10e-5 -8.24897,-1.1126 -7.34062,13.9347 -15.15246,10.9036 -1.3e-4,-10e-5 -2.6e-4,-10e-5 -4e-4,-2e-4 -7.65977,-2.9726 8.69608,-10.9526 3.12305,-16.9983 -7e-5,-10e-5 -1.5e-4,-2e-4 -2.2e-4,-3e-4 -5.68309,-6.1645 -11.90563,10.9656 -16.2162,3.7595 -5e-5,-1e-4 -1.1e-4,-2e-4 -1.6e-4,-3e-4 -4.22663,-7.0664 10.66955,-4.8944 9.50204,-12.8107 -10e-6,-10e-5 -3e-5,-2e-4 -4e-5,-3e-4 -1.19092,-8.0722 -16.10136,-0.3906 -15.3875,-8.5154 1e-5,-10e-5 2e-5,-2e-4 3e-5,-3e-4 0.70041,-7.967 15.35884,5.2646 18.97132,-2.0355 5e-5,-10e-5 10e-5,-2e-4 1.5e-4,-3e-4 3.68326,-7.4441 -13.32375,-8.9529 -8.1951,-15.1325 7e-5,-10e-5 1.3e-4,-2e-4 2e-4,-3e-4 5.02933,-6.0594 8.94995,8.7733 16.03973,4.5307 1e-4,-10e-5 1.9e-4,-10e-5 2.8e-4,-2e-4 7.22923,-4.3265 -5.18673,-14.2525 2.7939,-16.1464 1e-4,-10e-5 2.1e-4,-10e-5 3.1e-4,-10e-5 7.82573,-1.8568 0.35175,14.9509 8.33517,15.877 1.1e-4,0 2.2e-4,0 3.2e-4,0 8.14075,0.9439 5.41239,-16.2427 12.76055,-12.7862 10e-5,0 1.9e-4,10e-5 2.9e-4,10e-5 7.20535,3.3897 -6.92353,12.4177 -1.5981,18.4526 7e-5,10e-5 1.4e-4,10e-5 2.2e-4,2e-4 5.43055,6.1534 10.70617,-11.1681 14.87391,-4.0252 6e-5,10e-5 1.1e-4,2e-4 1.6e-4,2e-4 4.08657,7.0045 -10.5683,6.1984 -9.31944,14.3742 3e-5,10e-5 5e-5,3e-4 7e-5,4e-4 1.27402,8.3365 17.01241,0.4296 15.38404,8.5976 -2e-5,10e-5 -4e-5,2e-4 -6e-5,3e-4 -1.59719,8.0094 -16.04262,-7.1975 -19.15046,0.3897 -4e-5,10e-5 -8e-5,2e-4 -1.2e-4,3e-4 -3.16867,7.7369 14.0525,10.2068 8.19518,15.8826 0,0 0,0 0,0"
           style="opacity:1;fill:#e65700;fill-opacity:1;stroke:#878787;stroke-width:2.875;stroke-linejoin:round;stroke-miterlimit:4;stroke-dasharray:none;stroke-opacity:1" />
        <path
           inkscape:connector-curvature="0"
           id="path14459"
           d="m 376.48795,1706.2495 c -5.74401,5.566 -6.7202,-10.399 -13.64448,-6.1173 -7e-5,10e-5 -1.3e-4,10e-5 -1.9e-4,10e-5 -7.06063,4.3664 2.17033,15.2169 -6.18459,16.229 -1.7e-4,0 -3.5e-4,10e-5 -5.3e-4,10e-5 -8.19224,0.9919 2.95911,-13.3366 -5.13045,-14.4283 -1.7e-4,0 -3.5e-4,0 -5.3e-4,-10e-5 -8.24886,-1.1124 -7.34056,13.9347 -15.15235,10.9036 -1.7e-4,-1e-4 -3.4e-4,-1e-4 -5.1e-4,-2e-4 -7.65952,-2.9726 8.69616,-10.9526 3.12315,-16.9983 -5e-5,0 -9e-5,-10e-5 -1.4e-4,-10e-5 -5.68311,-6.1648 -11.90568,10.9655 -16.21627,3.7593 -4e-5,0 -8e-5,-10e-5 -1.2e-4,-2e-4 -4.2268,-7.0664 10.66951,-4.8945 9.50199,-12.8108 -1e-5,-10e-5 -2e-5,-10e-5 -3e-5,-2e-4 -1.1908,-8.0724 -16.10137,-0.3907 -15.3875,-8.5155 0,-10e-5 1e-5,-10e-5 1e-5,-2e-4 0.70029,-7.9672 15.35884,5.2646 18.97134,-2.0356 3e-5,-10e-5 6e-5,-10e-5 9e-5,-2e-4 3.68346,-7.4441 -13.32372,-8.9529 -8.19505,-15.1326 5e-5,0 9e-5,-1e-4 1.4e-4,-1e-4 5.02936,-6.0597 8.94998,8.7732 16.03979,4.5305 7e-5,0 1.3e-4,-10e-5 1.9e-4,-10e-5 7.22943,-4.3265 -5.18668,-14.2525 2.79399,-16.1465 7e-5,0 1.4e-4,0 2.1e-4,0 7.8259,-1.857 0.35181,14.9508 8.33528,15.8769 7e-5,0 1.4e-4,0 2.1e-4,0 8.14088,0.9441 5.41246,-16.2427 12.76066,-12.7862 6e-5,0 1.2e-4,1e-4 1.8e-4,1e-4 7.20558,3.3897 -6.92345,12.4177 -1.598,18.4526 5e-5,10e-5 1e-4,10e-5 1.5e-4,2e-4 5.43058,6.1536 10.70622,-11.1681 14.87399,-4.0252 3e-5,10e-5 7e-5,10e-5 10e-5,2e-4 4.08675,7.0045 -10.56825,6.1984 -9.31938,14.3742 2e-5,2e-4 5e-5,4e-4 8e-5,6e-4 1.27414,8.3363 17.01238,0.4295 15.38402,8.5974 -10e-6,10e-5 -2e-5,2e-4 -4e-5,2e-4 -1.59709,8.0096 -16.04262,-7.1974 -19.15048,0.3898 -2e-5,10e-5 -5e-5,10e-5 -8e-5,2e-4 -3.16885,7.7371 14.05249,10.207 8.19515,15.8827 0,0 0,0 0,0"
           style="opacity:1;fill:#e03a00;fill-opacity:1;stroke:#a9a9a9;stroke-width:2.875;stroke-linejoin:round;stroke-miterlimit:4;stroke-dasharray:none;stroke-opacity:1" />
        <path
           inkscape:connector-curvature="0"
           id="path14461"
           d="m 438.01856,1706.8618 c -5.744,5.566 -6.72019,-10.399 -13.64448,-6.1173 -3e-5,0 -6e-5,0 -9e-5,0 -7.0608,4.3664 2.17027,15.217 -6.18468,16.2291 -2.2e-4,0 -4.3e-4,0 -6.5e-4,0 -8.19203,0.9918 2.95919,-13.3366 -5.13033,-14.4282 -2.2e-4,-10e-5 -4.3e-4,-10e-5 -6.5e-4,-10e-5 -8.24873,-1.1124 -7.34048,13.9347 -15.15224,10.9036 -2e-4,-1e-4 -4e-4,-2e-4 -6e-4,-3e-4 -7.65929,-2.9727 8.69623,-10.9526 3.12325,-16.9982 -3e-5,-10e-5 -5e-5,-10e-5 -8e-5,-10e-5 -5.68313,-6.165 -11.90573,10.9654 -16.21634,3.7593 -2e-5,-10e-5 -4e-5,-10e-5 -6e-5,-10e-5 -4.22699,-7.0666 10.66945,-4.8946 9.50194,-12.8109 -1e-5,-10e-5 -1e-5,-10e-5 -2e-5,-10e-5 -1.19068,-8.0726 -16.10139,-0.3908 -15.38752,-8.5156 0,-10e-5 0,-10e-5 10e-6,-10e-5 0.70017,-7.9674 15.35882,5.2644 18.97134,-2.0357 1e-5,-10e-5 3e-5,-10e-5 5e-5,-10e-5 3.68365,-7.4443 -13.3237,-8.9531 -8.195,-15.1327 2e-5,-1e-4 4e-5,-1e-4 6e-5,-1e-4 5.0294,-6.0599 8.95002,8.7731 16.03987,4.5305 3e-5,-10e-5 6e-5,-10e-5 9e-5,-10e-5 7.22963,-4.3264 -5.18662,-14.2526 2.79409,-16.1465 3e-5,-10e-5 7e-5,-10e-5 1e-4,-10e-5 7.82606,-1.8571 0.35188,14.9509 8.33538,15.877 3e-5,0 7e-5,0 10e-5,0 8.14101,0.9442 5.41254,-16.2427 12.76077,-12.7862 3e-5,0 6e-5,0 9e-5,0 7.20579,3.3896 -6.92338,12.4177 -1.5979,18.4527 2e-5,0 4e-5,0 7e-5,0 5.4306,6.1539 10.70628,-11.168 14.87406,-4.025 2e-5,0 3e-5,0 5e-5,0 4.08693,7.0047 -10.56821,6.1985 -9.31933,14.3744 3e-5,2e-4 6e-5,4e-4 1e-4,6e-4 1.27426,8.3361 17.01236,0.4295 15.38401,8.5974 -10e-6,0 -2e-5,0 -2e-5,10e-5 -1.59699,8.0098 -16.04264,-7.1974 -19.1505,0.3899 -2e-5,0 -3e-5,0 -4e-5,10e-5 -3.16905,7.7371 14.05247,10.207 8.1951,15.8828 0,0 0,0 0,0"
           style="opacity:1;fill:#da1d00;fill-opacity:1;stroke:#cbcbcb;stroke-width:2.875;stroke-linejoin:round;stroke-miterlimit:4;stroke-dasharray:none;stroke-opacity:1" />
      </g>
    </g>
  </g>
</svg>
